## Interface: 20400

## Title: Lib: AceGUI-3.0-SharedMediaWidgets
## Notes: Enables AceGUI-3.0 widgets for the 5 basic SharedMedia-3.0 types
## Version: 3.1
## Author: Yssaril
## OptionalDeps: Ace3, LibSharedMedia-3.0
## X-Category: Interface Enhancements

widget.xml