## Interface: 20400
## Title: ModUi
## Author: Obszczymucha
## Version: 1.0
## Notes: A framework for customizing user interface in a modular fashion.
## X-Category: Library
## OptionalDeps: Ace3
## SavedVariables: ModUiDb

Libs\Libs.xml
ModUi.xml
