## Interface: 20400
## Version: 08.04.06
## Title: TipTacOptions
## Author: Ryn (Earthen Ring EU)
## Notes: Option Dialog for TipTac
## Dependencies: TipTac
## LoadOnDemand: 1
DropDowns.lua
Options.lua
Factory.lua