## Interface: 20400
## Title: Shadowed UF (Options)
## Notes: Configuration for Shadowed Unit Frames.
## Author: Shadowed, Aviana
## LoadOnDemand: true
## Dependencies: ShadowedUnitFrames
## Version: Backport v.01 from v3.2.12-5-g3fb7edd
## X-GitHub-Url: https://github.com/Aviana/ShadowedUnitFrames

libs\AceDBOptions-3.0\AceDBOptions-3.0.xml
libs\AceGUI-3.0\AceGUI-3.0.xml
libs\AceGUI-3.0-SharedMediaWidgets\widget.xml
libs\AceConfig-3.0\AceConfig-3.0.xml

config.lua