## Interface: 20400
## LoadOnDemand: 1
## Title: Lib: GUIDRegistry-0.1
## Notes:
## X-Category: Library
## OptionalDeps: Ace3, CallbackHandler-1.0

LibStub\LibStub.lua

embeds.xml

LibGUIDRegistry-0.1\lib.xml
#LibGUIDRegistry-0.2\lib.xml
