## Interface: 20400
## Title : Extended Character Stats
## Version : 2.9.0
## Author: BreakBB, Ethulu
## Notes: Displays an extra window with more information about your characters stats ( Crit/Hit/Block etc )
## SavedVariablesPerCharacter: ExtendedCharacterStats
## DefaultState : enabled
## X-Curse-Project-ID: 334877

embeds.xml

# ModuleLoader
Modules\ModuleLoader.lua

# Modules
Modules\Utils.lua
Modules\Stats.lua
Modules\GearInfos.lua
Modules\Profile.lua
Modules\SlashCommands.lua

# Data
Modules\Data\Constants.lua
Modules\Data\Data.lua
Modules\Data\DataUtils.lua
Modules\Data\ItemSets.lua
Modules\Data\General.lua
Modules\Data\Defense.lua
Modules\Data\CritImmunity.lua
Modules\Data\Melee.lua
Modules\Data\MP5.lua
Modules\Data\Ranged.lua
Modules\Data\SpellCrit.lua
Modules\Data\SpellDamage.lua
Modules\Data\SpellHit.lua

# Config
Modules\Config\Config.lua
Modules\Config\GeneralSection.lua
Modules\Config\MeleeSection.lua
Modules\Config\RangeSection.lua
Modules\Config\DefenseSection.lua
Modules\Config\CritImmunitySection.lua
Modules\Config\ManaSection.lua
Modules\Config\SpellSection.lua
Modules\Config\SpellBonusSection.lua

# i18n
Modules\i18n\i18n.lua
Modules\i18n\en.lua
Modules\i18n\de.lua
Modules\i18n\fr.lua
Modules\i18n\cn.lua

# Main
ECS.lua
